PCBNEW-LibModule-V1  Sat 10 Oct 2020 09:31:05 PM 
Units mm
$INDEX
svg2mod
svg2mod-rev
$EndINDEX
#
# K(M)155ид1.svg
#
$MODULE svg2mod
Po 0 0 0 15 00000000 00000000 ~~
Li svg2mod
T0 0 -3.048 1.524 1.524 0 0.3048 N I 21 "svg2mod"
T1 0 3.944972689899 1.524 1.524 0 0.3048 N I 21 "G***"
DP 0 0 0 0 12 0.00254 21
Dl 0.0 0.029785160993
Dl 0.09863281 0.029785160993
Dl 0.09863281 0.337890641263
Dl 0.42578125 0.029785160993
Dl 0.55273437 0.029785160993
Dl 0.19091797 0.369628922321
Dl 0.57861328 0.758789085293
Dl 0.44873047 0.758789085293
Dl 0.09863281 0.40771485359
Dl 0.09863281 0.758789085293
Dl 0.0 0.758789085293
Dl 0.0 0.029785160993
DP 0 0 0 0 11 0.00254 21
Dl 0.86767578 0.0
Dl 0.77050778 0.222167977406
Dl 0.73876948 0.444824234827
Dl 0.77050778 0.668457052282
Dl 0.86767578 0.890625029688
Dl 0.78955078 0.890625029688
Dl 0.6796875 0.665039082168
Dl 0.64355469 0.444824234827
Dl 0.67968749 0.22558594752
Dl 0.78955078 0.0
Dl 0.86767578 0.0
DP 0 0 0 0 14 0.00254 21
Dl 1.0458984 0.029785160993
Dl 1.1928711 0.029785160993
Dl 1.3789062 0.525878927529
Dl 1.565918 0.029785160993
Dl 1.7128906 0.029785160993
Dl 1.7128906 0.758789085293
Dl 1.6166992 0.758789085293
Dl 1.6166992 0.118652343955
Dl 1.4287109 0.618652360622
Dl 1.3295899 0.618652360622
Dl 1.1416017 0.118652343955
Dl 1.1416017 0.758789085293
Dl 1.0458987 0.758789085293
Dl 1.0458984 0.029785160993
DP 0 0 0 0 11 0.00254 21
Dl 1.890625 0.0
Dl 1.96875 0.0
Dl 2.078125 0.22558594752
Dl 2.114746 0.444824234827
Dl 2.078125 0.665039082168
Dl 1.96875 0.890625029688
Dl 1.890625 0.890625029688
Dl 1.987305 0.668457052282
Dl 2.019532 0.444824234827
Dl 1.987305 0.222167977406
Dl 1.890625 0.0
DP 0 0 0 0 12 0.00254 21
Dl 2.324707 0.675781272526
Dl 2.4858398 0.675781272526
Dl 2.4858398 0.119628913988
Dl 2.3105469 0.15478516516
Dl 2.3105469 0.064941412165
Dl 2.4848633 0.029785160993
Dl 2.5834963 0.029785160993
Dl 2.5834963 0.675781272526
Dl 2.7446291 0.675781272526
Dl 2.7446291 0.758789075293
Dl 2.324707 0.758789075293
Dl 2.324707 0.675781272526
DP 0 0 0 0 23 0.00254 21
Dl 2.9448242 0.029785160993
Dl 3.3320313 0.029785160993
Dl 3.3320313 0.11279297376
Dl 3.0351563 0.11279297376
Dl 3.0351563 0.291503919717
Dl 3.0781253 0.280761719359
Dl 3.1210943 0.276855719229
Dl 3.3144536 0.343750221458
Dl 3.3857426 0.524902567497
Dl 3.3125006 0.7080080436
Dl 3.1059576 0.772949445765
Dl 3.0122076 0.765136445505
Dl 2.9140626 0.741698944723
Dl 2.9140626 0.642577841419
Dl 3.0048826 0.678222342607
Dl 3.1040036 0.689941142998
Dl 3.2377927 0.645507541517
Dl 3.2871087 0.524902067497
Dl 3.2377927 0.404296603477
Dl 3.1040036 0.359863001995
Dl 3.0249016 0.368652002288
Dl 2.9448236 0.3959958032
Dl 2.9448242 0.029785160993
DP 0 0 0 0 23 0.00254 21
Dl 3.5810547 0.029785160993
Dl 3.9682617 0.029785160993
Dl 3.9682617 0.11279297376
Dl 3.6713867 0.11279297376
Dl 3.6713867 0.291503919717
Dl 3.7143557 0.280761719359
Dl 3.7573247 0.276855719229
Dl 3.9506841 0.343750221458
Dl 4.0219731 0.524902567497
Dl 3.9487311 0.7080080436
Dl 3.7421881 0.772949445765
Dl 3.6484381 0.765136445505
Dl 3.5502931 0.741698944723
Dl 3.5502931 0.642577841419
Dl 3.6411131 0.678222342607
Dl 3.7402341 0.689941142998
Dl 3.8740231 0.645507541517
Dl 3.9233391 0.524902067497
Dl 3.8740231 0.404296603477
Dl 3.7402341 0.359863001995
Dl 3.6611321 0.368652002288
Dl 3.5810541 0.3959958032
Dl 3.5810547 0.029785160993
DP 0 0 0 0 11 0.00254 21
Dl 4.668457 0.211914067064
Dl 4.668457 0.758789085293
Dl 4.5791016 0.758789085293
Dl 4.5791016 0.319824230661
Dl 4.3154297 0.758789085293
Dl 4.2001953 0.758789085293
Dl 4.2001953 0.211914067064
Dl 4.2895503 0.211914067064
Dl 4.2895503 0.649902361663
Dl 4.5527344 0.211914067064
Dl 4.668457 0.211914067064
DP 0 0 0 0 23 0.00254 21
Dl 4.9755859 0.6870117429
Dl 4.8452148 0.6870117429
Dl 4.9091798 0.625976540866
Dl 4.9570318 0.315429660514
Dl 4.9570318 0.211914067064
Dl 5.3266608 0.211914067064
Dl 5.3266608 0.6870117429
Dl 5.3984378 0.6870117429
Dl 5.3984378 0.896972689899
Dl 5.3266602 0.896972689899
Dl 5.3266602 0.758789085293
Dl 4.8833008 0.758789085293
Dl 4.8833008 0.896972689899
Dl 4.8115234 0.896972689899
Dl 4.8115234 0.6870117429
Dl 4.8452148 0.6870117429
Dl 4.9755859 0.6870117429
Dl 5.2363281 0.6870117429
Dl 5.2363281 0.283691419456
Dl 5.0473633 0.283691419456
Dl 5.0473633 0.352050821735
Dl 4.9897463 0.660644582021
Dl 4.9755859 0.6870117429
DP 0 0 0 0 12 0.00254 21
Dl 5.574707 0.675781272526
Dl 5.7358398 0.675781272526
Dl 5.7358398 0.119628913988
Dl 5.5605469 0.15478516516
Dl 5.5605469 0.064941412165
Dl 5.7348633 0.029785160993
Dl 5.8334963 0.029785160993
Dl 5.8334963 0.675781272526
Dl 5.9946291 0.675781272526
Dl 5.9946291 0.758789075293
Dl 5.574707 0.758789075293
Dl 5.574707 0.675781272526
$EndMODULE svg2mod
$MODULE svg2mod-rev
Po 0 0 0 15 00000000 00000000 ~~
Li svg2mod-rev
T0 0 -3.048 1.524 1.524 0 0.3048 N I 21 "svg2mod-rev"
T1 0 3.944972689899 1.524 1.524 0 0.3048 N I 21 "G***"
DP 0 0 0 0 12 0.00254 21
Dl -0.0 0.029785160993
Dl -0.09863281 0.029785160993
Dl -0.09863281 0.337890641263
Dl -0.42578125 0.029785160993
Dl -0.55273437 0.029785160993
Dl -0.19091797 0.369628922321
Dl -0.57861328 0.758789085293
Dl -0.44873047 0.758789085293
Dl -0.09863281 0.40771485359
Dl -0.09863281 0.758789085293
Dl -0.0 0.758789085293
Dl -0.0 0.029785160993
DP 0 0 0 0 11 0.00254 21
Dl -0.86767578 0.0
Dl -0.77050778 0.222167977406
Dl -0.73876948 0.444824234827
Dl -0.77050778 0.668457052282
Dl -0.86767578 0.890625029688
Dl -0.78955078 0.890625029688
Dl -0.6796875 0.665039082168
Dl -0.64355469 0.444824234827
Dl -0.67968749 0.22558594752
Dl -0.78955078 0.0
Dl -0.86767578 0.0
DP 0 0 0 0 14 0.00254 21
Dl -1.0458984 0.029785160993
Dl -1.1928711 0.029785160993
Dl -1.3789062 0.525878927529
Dl -1.565918 0.029785160993
Dl -1.7128906 0.029785160993
Dl -1.7128906 0.758789085293
Dl -1.6166992 0.758789085293
Dl -1.6166992 0.118652343955
Dl -1.4287109 0.618652360622
Dl -1.3295899 0.618652360622
Dl -1.1416017 0.118652343955
Dl -1.1416017 0.758789085293
Dl -1.0458987 0.758789085293
Dl -1.0458984 0.029785160993
DP 0 0 0 0 11 0.00254 21
Dl -1.890625 0.0
Dl -1.96875 0.0
Dl -2.078125 0.22558594752
Dl -2.114746 0.444824234827
Dl -2.078125 0.665039082168
Dl -1.96875 0.890625029688
Dl -1.890625 0.890625029688
Dl -1.987305 0.668457052282
Dl -2.019532 0.444824234827
Dl -1.987305 0.222167977406
Dl -1.890625 0.0
DP 0 0 0 0 12 0.00254 21
Dl -2.324707 0.675781272526
Dl -2.4858398 0.675781272526
Dl -2.4858398 0.119628913988
Dl -2.3105469 0.15478516516
Dl -2.3105469 0.064941412165
Dl -2.4848633 0.029785160993
Dl -2.5834963 0.029785160993
Dl -2.5834963 0.675781272526
Dl -2.7446291 0.675781272526
Dl -2.7446291 0.758789075293
Dl -2.324707 0.758789075293
Dl -2.324707 0.675781272526
DP 0 0 0 0 23 0.00254 21
Dl -2.9448242 0.029785160993
Dl -3.3320313 0.029785160993
Dl -3.3320313 0.11279297376
Dl -3.0351563 0.11279297376
Dl -3.0351563 0.291503919717
Dl -3.0781253 0.280761719359
Dl -3.1210943 0.276855719229
Dl -3.3144536 0.343750221458
Dl -3.3857426 0.524902567497
Dl -3.3125006 0.7080080436
Dl -3.1059576 0.772949445765
Dl -3.0122076 0.765136445505
Dl -2.9140626 0.741698944723
Dl -2.9140626 0.642577841419
Dl -3.0048826 0.678222342607
Dl -3.1040036 0.689941142998
Dl -3.2377927 0.645507541517
Dl -3.2871087 0.524902067497
Dl -3.2377927 0.404296603477
Dl -3.1040036 0.359863001995
Dl -3.0249016 0.368652002288
Dl -2.9448236 0.3959958032
Dl -2.9448242 0.029785160993
DP 0 0 0 0 23 0.00254 21
Dl -3.5810547 0.029785160993
Dl -3.9682617 0.029785160993
Dl -3.9682617 0.11279297376
Dl -3.6713867 0.11279297376
Dl -3.6713867 0.291503919717
Dl -3.7143557 0.280761719359
Dl -3.7573247 0.276855719229
Dl -3.9506841 0.343750221458
Dl -4.0219731 0.524902567497
Dl -3.9487311 0.7080080436
Dl -3.7421881 0.772949445765
Dl -3.6484381 0.765136445505
Dl -3.5502931 0.741698944723
Dl -3.5502931 0.642577841419
Dl -3.6411131 0.678222342607
Dl -3.7402341 0.689941142998
Dl -3.8740231 0.645507541517
Dl -3.9233391 0.524902067497
Dl -3.8740231 0.404296603477
Dl -3.7402341 0.359863001995
Dl -3.6611321 0.368652002288
Dl -3.5810541 0.3959958032
Dl -3.5810547 0.029785160993
DP 0 0 0 0 11 0.00254 21
Dl -4.668457 0.211914067064
Dl -4.668457 0.758789085293
Dl -4.5791016 0.758789085293
Dl -4.5791016 0.319824230661
Dl -4.3154297 0.758789085293
Dl -4.2001953 0.758789085293
Dl -4.2001953 0.211914067064
Dl -4.2895503 0.211914067064
Dl -4.2895503 0.649902361663
Dl -4.5527344 0.211914067064
Dl -4.668457 0.211914067064
DP 0 0 0 0 23 0.00254 21
Dl -4.9755859 0.6870117429
Dl -4.8452148 0.6870117429
Dl -4.9091798 0.625976540866
Dl -4.9570318 0.315429660514
Dl -4.9570318 0.211914067064
Dl -5.3266608 0.211914067064
Dl -5.3266608 0.6870117429
Dl -5.3984378 0.6870117429
Dl -5.3984378 0.896972689899
Dl -5.3266602 0.896972689899
Dl -5.3266602 0.758789085293
Dl -4.8833008 0.758789085293
Dl -4.8833008 0.896972689899
Dl -4.8115234 0.896972689899
Dl -4.8115234 0.6870117429
Dl -4.8452148 0.6870117429
Dl -4.9755859 0.6870117429
Dl -5.2363281 0.6870117429
Dl -5.2363281 0.283691419456
Dl -5.0473633 0.283691419456
Dl -5.0473633 0.352050821735
Dl -4.9897463 0.660644582021
Dl -4.9755859 0.6870117429
DP 0 0 0 0 12 0.00254 21
Dl -5.574707 0.675781272526
Dl -5.7358398 0.675781272526
Dl -5.7358398 0.119628913988
Dl -5.5605469 0.15478516516
Dl -5.5605469 0.064941412165
Dl -5.7348633 0.029785160993
Dl -5.8334963 0.029785160993
Dl -5.8334963 0.675781272526
Dl -5.9946291 0.675781272526
Dl -5.9946291 0.758789075293
Dl -5.574707 0.758789075293
Dl -5.574707 0.675781272526
$EndMODULE svg2mod-rev
$EndLIBRARY