<?xml version="1.0" encoding="UTF-8" standalone="no"?>
<svg
   xmlns:dc="http://purl.org/dc/elements/1.1/"
   xmlns:cc="http://creativecommons.org/ns#"
   xmlns:rdf="http://www.w3.org/1999/02/22-rdf-syntax-ns#"
   xmlns:svg="http://www.w3.org/2000/svg"
   xmlns="http://www.w3.org/2000/svg"
   xmlns:sodipodi="http://sodipodi.sourceforge.net/DTD/sodipodi-0.dtd"
   xmlns:inkscape="http://www.inkscape.org/namespaces/inkscape"
   width="6mm"
   height="0.89999998mm"
   viewBox="0 0 6 0.89999995"
   version="1.1"
   id="svg8"
   inkscape:version="1.0.1 (3bc2e813f5, 2020-09-07)"
   sodipodi:docname="K155ID1.svg">
  <defs
     id="defs2" />
  <sodipodi:namedview
     id="base"
     pagecolor="#ffffff"
     bordercolor="#666666"
     borderopacity="1.0"
     inkscape:pageopacity="0.0"
     inkscape:pageshadow="2"
     inkscape:zoom="63.356767"
     inkscape:cx="8.6395813"
     inkscape:cy="1.7007874"
     inkscape:document-units="mm"
     inkscape:current-layer="layer1"
     inkscape:document-rotation="0"
     showgrid="false"
     inkscape:pagecheckerboard="true"
     inkscape:window-width="3440"
     inkscape:window-height="1398"
     inkscape:window-x="3440"
     inkscape:window-y="42"
     inkscape:window-maximized="0"
     inkscape:snap-global="false" />
  <metadata
     id="metadata5">
    <rdf:RDF>
      <cc:Work
         rdf:about="">
        <dc:format>image/svg+xml</dc:format>
        <dc:type
           rdf:resource="http://purl.org/dc/dcmitype/StillImage" />
        <dc:title />
      </cc:Work>
    </rdf:RDF>
  </metadata>
  <g
     inkscape:label="F.SilkS"
     inkscape:groupmode="layer"
     id="layer1">
    <g
       aria-label="K(M)155ид1"
       id="text12"
       style="font-style:normal;font-variant:normal;font-weight:normal;font-stretch:normal;font-size:1px;line-height:1.25;font-family:sans-serif;-inkscape-font-specification:sans-serif;fill:#000000;fill-opacity:1;stroke:none;stroke-width:0.264583">
      <path
         d="M 0,0.02978516 H 0.09863281 V 0.33789063 L 0.42578125,0.02978516 H 0.55273437 L 0.19091797,0.36962891 0.57861328,0.75878906 H 0.44873047 L 0.09863281,0.40771484 V 0.75878906 H 0 Z"
         style="font-style:normal;font-variant:normal;font-weight:normal;font-stretch:normal;font-size:1px;font-family:sans-serif;-inkscape-font-specification:sans-serif;stroke-width:0.264583;stroke:none"
         id="path1036" />
      <path
         d="m 0.86767578,0 q -0.0654297,0.11230469 -0.097168,0.22216797 -0.0317383,0.10986328 -0.0317383,0.22265625 0,0.11279297 0.0317383,0.22363281 0.0322266,0.11035156 0.097168,0.22216797 h -0.078125 Q 0.71630859,0.77587891 0.6796875,0.66503906 0.64355469,0.55419922 0.64355469,0.44482422 q 0,-0.10888672 0.0361328,-0.21923828 Q 0.71582031,0.11523437 0.78955078,0 Z"
         style="font-style:normal;font-variant:normal;font-weight:normal;font-stretch:normal;font-size:1px;font-family:sans-serif;-inkscape-font-specification:sans-serif;stroke-width:0.264583;stroke:none"
         id="path1038" />
      <path
         d="M 1.0458984,0.02978516 H 1.1928711 L 1.3789062,0.52587891 1.565918,0.02978516 h 0.1469726 v 0.7290039 H 1.6166992 V 0.11865234 l -0.1879883,0.5 h -0.099121 l -0.1879882,-0.5 v 0.64013672 h -0.095703 z"
         style="font-style:normal;font-variant:normal;font-weight:normal;font-stretch:normal;font-size:1px;font-family:sans-serif;-inkscape-font-specification:sans-serif;stroke-width:0.264583;stroke:none"
         id="path1040" />
      <path
         d="M 1.890625,0 H 1.96875 q 0.073242,0.11523437 0.109375,0.22558594 0.036621,0.11035156 0.036621,0.21923828 0,0.109375 -0.036621,0.22021484 Q 2.0419922,0.77587891 1.96875,0.890625 H 1.890625 q 0.064941,-0.11181641 0.09668,-0.22216797 0.032227,-0.11083984 0.032227,-0.22363281 0,-0.11279297 -0.032227,-0.22265625 Q 1.9555664,0.11230469 1.890625,0 Z"
         style="font-style:normal;font-variant:normal;font-weight:normal;font-stretch:normal;font-size:1px;font-family:sans-serif;-inkscape-font-specification:sans-serif;stroke-width:0.264583;stroke:none"
         id="path1042" />
      <path
         d="M 2.324707,0.67578125 H 2.4858398 V 0.11962891 L 2.3105469,0.15478516 V 0.06494141 L 2.4848633,0.02978516 h 0.098633 v 0.64599609 h 0.1611328 v 0.0830078 H 2.324707 Z"
         style="font-style:normal;font-variant:normal;font-weight:normal;font-stretch:normal;font-size:1px;font-family:sans-serif;-inkscape-font-specification:sans-serif;stroke-width:0;stroke:none;stroke-miterlimit:4;stroke-dasharray:none"
         id="path1044" />
      <path
         d="m 2.9448242,0.02978516 h 0.3872071 v 0.08300781 h -0.296875 v 0.17871094 q 0.021484,-0.007324 0.042969,-0.0107422 0.021484,-0.003906 0.042969,-0.003906 0.1220703,0 0.1933593,0.0668945 0.071289,0.0668945 0.071289,0.18115234 0,0.11767578 -0.073242,0.18310547 -0.073242,0.0649414 -0.206543,0.0649414 -0.045898,0 -0.09375,-0.007813 -0.047363,-0.007813 -0.098145,-0.0234375 v -0.0991211 q 0.043945,0.0239258 0.09082,0.0356445 0.046875,0.0117188 0.099121,0.0117188 0.084473,0 0.1337891,-0.0444336 0.049316,-0.0444336 0.049316,-0.12060547 0,-0.0761719 -0.049316,-0.12060546 -0.049316,-0.0444336 -0.1337891,-0.0444336 -0.039551,0 -0.079102,0.008789 -0.039063,0.008789 -0.080078,0.0273438 z"
         style="font-style:normal;font-variant:normal;font-weight:normal;font-stretch:normal;font-size:1px;font-family:sans-serif;-inkscape-font-specification:sans-serif;stroke-width:0.264583;stroke:none"
         id="path1046" />
      <path
         d="m 3.5810547,0.02978516 h 0.387207 v 0.08300781 h -0.296875 v 0.17871094 q 0.021484,-0.007324 0.042969,-0.0107422 0.021484,-0.003906 0.042969,-0.003906 0.1220703,0 0.1933594,0.0668945 0.071289,0.0668945 0.071289,0.18115234 0,0.11767578 -0.073242,0.18310547 -0.073242,0.0649414 -0.206543,0.0649414 -0.045898,0 -0.09375,-0.007813 -0.047363,-0.007813 -0.098145,-0.0234375 v -0.0991211 q 0.043945,0.0239258 0.09082,0.0356445 0.046875,0.0117188 0.099121,0.0117188 0.084473,0 0.133789,-0.0444336 0.049316,-0.0444336 0.049316,-0.12060547 0,-0.0761719 -0.049316,-0.12060546 -0.049316,-0.0444336 -0.133789,-0.0444336 -0.039551,0 -0.079102,0.008789 -0.039063,0.008789 -0.080078,0.0273438 z"
         style="font-style:normal;font-variant:normal;font-weight:normal;font-stretch:normal;font-size:1px;font-family:sans-serif;-inkscape-font-specification:sans-serif;stroke-width:0.264583;stroke:none"
         id="path1048" />
      <path
         d="m 4.668457,0.21191406 v 0.546875 H 4.5791016 V 0.31982422 L 4.3154297,0.75878906 H 4.2001953 v -0.546875 h 0.089355 V 0.64990234 L 4.5527344,0.21191406 Z"
         style="font-style:normal;font-variant:normal;font-weight:normal;font-stretch:normal;font-size:1px;font-family:sans-serif;-inkscape-font-specification:sans-serif;stroke-width:0.264583;stroke:none"
         id="path1050" />
      <path
         d="M 4.9755859,0.68701172 H 5.2363281 V 0.28369141 H 5.0473633 v 0.0683594 q 0,0.20117188 -0.057617,0.30859375 z m -0.1303711,0 q 0.044434,-0.0195313 0.063965,-0.0610352 0.047852,-0.10302734 0.047852,-0.31054687 V 0.21191406 h 0.369629 v 0.47509766 h 0.071777 V 0.89697266 H 5.3266602 V 0.75878906 H 4.8833008 v 0.1381836 H 4.8115234 V 0.68701172 Z"
         style="font-style:normal;font-variant:normal;font-weight:normal;font-stretch:normal;font-size:1px;font-family:sans-serif;-inkscape-font-specification:sans-serif;stroke-width:0.264583;stroke:none"
         id="path1052" />
      <path
         d="M 5.574707,0.67578125 H 5.7358398 V 0.11962891 L 5.5605469,0.15478516 V 0.06494141 L 5.7348633,0.02978516 h 0.098633 v 0.64599609 h 0.1611328 v 0.0830078 H 5.574707 Z"
         style="font-style:normal;font-variant:normal;font-weight:normal;font-stretch:normal;font-size:1px;font-family:sans-serif;-inkscape-font-specification:sans-serif;stroke-width:0.264583;stroke:none"
         id="path1054" />
    </g>
  </g>
</svg>
