G04 #@! TF.GenerationSoftware,KiCad,Pcbnew,5.1.6*
G04 #@! TF.CreationDate,2020-10-26T01:18:32+01:00*
G04 #@! TF.ProjectId,nixie-breakout,6e697869-652d-4627-9265-616b6f75742e,rev?*
G04 #@! TF.SameCoordinates,Original*
G04 #@! TF.FileFunction,Soldermask,Top*
G04 #@! TF.FilePolarity,Negative*
%FSLAX46Y46*%
G04 Gerber Fmt 4.6, Leading zero omitted, Abs format (unit mm)*
G04 Created by KiCad (PCBNEW 5.1.6) date 2020-10-26 01:18:32*
%MOMM*%
%LPD*%
G01*
G04 APERTURE LIST*
%ADD10O,1.800000X1.800000*%
%ADD11R,1.800000X1.800000*%
%ADD12R,0.700000X1.000000*%
%ADD13C,1.237920*%
%ADD14C,1.606220*%
%ADD15C,1.446200*%
%ADD16R,1.600000X1.100000*%
G04 APERTURE END LIST*
D10*
X182100000Y-79660000D03*
X182100000Y-82200000D03*
X182100000Y-84740000D03*
X182100000Y-87280000D03*
X182100000Y-89820000D03*
X182100000Y-92360000D03*
D11*
X182100000Y-94900000D03*
D10*
X164200000Y-94900000D03*
X164200000Y-92360000D03*
X164200000Y-89820000D03*
X164200000Y-87280000D03*
X164200000Y-84740000D03*
D11*
X164200000Y-82200000D03*
D10*
X139800000Y-78900000D03*
X139800000Y-81440000D03*
X139800000Y-83980000D03*
X139800000Y-86520000D03*
X139800000Y-89060000D03*
D11*
X139800000Y-91600000D03*
D10*
X160400000Y-89760000D03*
X160400000Y-87220000D03*
X160400000Y-84680000D03*
X160400000Y-82140000D03*
D11*
X160400000Y-79600000D03*
D10*
X113000000Y-89300000D03*
X113000000Y-86760000D03*
X113000000Y-84220000D03*
X113000000Y-81680000D03*
X113000000Y-79140000D03*
D11*
X113000000Y-76600000D03*
D10*
X136100000Y-76360000D03*
X136100000Y-78900000D03*
X136100000Y-81440000D03*
X136100000Y-83980000D03*
X136100000Y-86520000D03*
X136100000Y-89060000D03*
D11*
X136100000Y-91600000D03*
D10*
X153620000Y-94900000D03*
X151080000Y-94900000D03*
X148540000Y-94900000D03*
D11*
X146000000Y-94900000D03*
D10*
X177020000Y-94900000D03*
X174480000Y-94900000D03*
X171940000Y-94900000D03*
D11*
X169400000Y-94900000D03*
D10*
X128220000Y-94900000D03*
X125680000Y-94900000D03*
X123140000Y-94900000D03*
D11*
X120600000Y-94900000D03*
D12*
X149364000Y-83584300D03*
X149364000Y-85684300D03*
X150864000Y-85684300D03*
X150864000Y-83584300D03*
X172450000Y-84650000D03*
X172450000Y-86750000D03*
X173950000Y-86750000D03*
X173950000Y-84650000D03*
D13*
X176710280Y-84369040D03*
X169689720Y-84369040D03*
X173200000Y-89454120D03*
X170111360Y-87831060D03*
X169473820Y-86152120D03*
X176288640Y-87831060D03*
X172303380Y-82055100D03*
X174096620Y-82055100D03*
X175689200Y-82890760D03*
X176926180Y-86152120D03*
X170710800Y-82890760D03*
X174942440Y-89022320D03*
X171457560Y-89022320D03*
D14*
X147015200Y-88121720D03*
X145653760Y-84052640D03*
X146448780Y-81804740D03*
X148186140Y-80448380D03*
X150147020Y-80031820D03*
X152316180Y-80583000D03*
X153949400Y-82287340D03*
X154668220Y-84446340D03*
X154335480Y-86539300D03*
X152905460Y-88116640D03*
X145872200Y-86287840D03*
D15*
X121613720Y-88677980D03*
X127364280Y-88677980D03*
X124489000Y-89386640D03*
X130633260Y-83943420D03*
X130275120Y-81004640D03*
X128593640Y-78566240D03*
X125969820Y-77189560D03*
X123008180Y-77189560D03*
X120384360Y-78566240D03*
X118702880Y-81004640D03*
X118344740Y-83943420D03*
X119396300Y-86714560D03*
X129581700Y-86714560D03*
D16*
X122039000Y-81599200D03*
X122039000Y-84799200D03*
X126939000Y-81599200D03*
X126939000Y-84799200D03*
M02*
