G04 #@! TF.GenerationSoftware,KiCad,Pcbnew,5.1.6*
G04 #@! TF.CreationDate,2020-10-26T01:18:32+01:00*
G04 #@! TF.ProjectId,nixie-breakout,6e697869-652d-4627-9265-616b6f75742e,rev?*
G04 #@! TF.SameCoordinates,Original*
G04 #@! TF.FileFunction,Profile,NP*
%FSLAX46Y46*%
G04 Gerber Fmt 4.6, Leading zero omitted, Abs format (unit mm)*
G04 Created by KiCad (PCBNEW 5.1.6) date 2020-10-26 01:18:32*
%MOMM*%
%LPD*%
G01*
G04 APERTURE LIST*
G04 #@! TA.AperFunction,Profile*
%ADD10C,0.050000*%
G04 #@! TD*
G04 APERTURE END LIST*
D10*
X184000000Y-74000000D02*
X111000000Y-74000000D01*
X184000000Y-96800000D02*
X184000000Y-74000000D01*
X111000000Y-96800000D02*
X184000000Y-96800000D01*
X111000000Y-74000000D02*
X111000000Y-96800000D01*
M02*
