G04 #@! TF.GenerationSoftware,KiCad,Pcbnew,5.1.6*
G04 #@! TF.CreationDate,2020-10-26T01:18:32+01:00*
G04 #@! TF.ProjectId,nixie-breakout,6e697869-652d-4627-9265-616b6f75742e,rev?*
G04 #@! TF.SameCoordinates,Original*
G04 #@! TF.FileFunction,Copper,L2,Bot*
G04 #@! TF.FilePolarity,Positive*
%FSLAX46Y46*%
G04 Gerber Fmt 4.6, Leading zero omitted, Abs format (unit mm)*
G04 Created by KiCad (PCBNEW 5.1.6) date 2020-10-26 01:18:32*
%MOMM*%
%LPD*%
G01*
G04 APERTURE LIST*
G04 #@! TA.AperFunction,ComponentPad*
%ADD10O,1.700000X1.700000*%
G04 #@! TD*
G04 #@! TA.AperFunction,ComponentPad*
%ADD11R,1.700000X1.700000*%
G04 #@! TD*
G04 #@! TA.AperFunction,ComponentPad*
%ADD12C,1.137920*%
G04 #@! TD*
G04 #@! TA.AperFunction,ComponentPad*
%ADD13C,1.506220*%
G04 #@! TD*
G04 #@! TA.AperFunction,ComponentPad*
%ADD14C,1.346200*%
G04 #@! TD*
G04 #@! TA.AperFunction,Conductor*
%ADD15C,0.127000*%
G04 #@! TD*
G04 APERTURE END LIST*
D10*
X182100000Y-79660000D03*
X182100000Y-82200000D03*
X182100000Y-84740000D03*
X182100000Y-87280000D03*
X182100000Y-89820000D03*
X182100000Y-92360000D03*
D11*
X182100000Y-94900000D03*
D10*
X164200000Y-94900000D03*
X164200000Y-92360000D03*
X164200000Y-89820000D03*
X164200000Y-87280000D03*
X164200000Y-84740000D03*
D11*
X164200000Y-82200000D03*
D10*
X139800000Y-78900000D03*
X139800000Y-81440000D03*
X139800000Y-83980000D03*
X139800000Y-86520000D03*
X139800000Y-89060000D03*
D11*
X139800000Y-91600000D03*
D10*
X160400000Y-89760000D03*
X160400000Y-87220000D03*
X160400000Y-84680000D03*
X160400000Y-82140000D03*
D11*
X160400000Y-79600000D03*
D10*
X113000000Y-89300000D03*
X113000000Y-86760000D03*
X113000000Y-84220000D03*
X113000000Y-81680000D03*
X113000000Y-79140000D03*
D11*
X113000000Y-76600000D03*
D10*
X136100000Y-76360000D03*
X136100000Y-78900000D03*
X136100000Y-81440000D03*
X136100000Y-83980000D03*
X136100000Y-86520000D03*
X136100000Y-89060000D03*
D11*
X136100000Y-91600000D03*
D10*
X153620000Y-94900000D03*
X151080000Y-94900000D03*
X148540000Y-94900000D03*
D11*
X146000000Y-94900000D03*
D10*
X177020000Y-94900000D03*
X174480000Y-94900000D03*
X171940000Y-94900000D03*
D11*
X169400000Y-94900000D03*
D10*
X128220000Y-94900000D03*
X125680000Y-94900000D03*
X123140000Y-94900000D03*
D11*
X120600000Y-94900000D03*
D12*
X176710280Y-84369040D03*
X169689720Y-84369040D03*
X173200000Y-89454120D03*
X170111360Y-87831060D03*
X169473820Y-86152120D03*
X176288640Y-87831060D03*
X172303380Y-82055100D03*
X174096620Y-82055100D03*
X175689200Y-82890760D03*
X176926180Y-86152120D03*
X170710800Y-82890760D03*
X174942440Y-89022320D03*
X171457560Y-89022320D03*
D13*
X147015200Y-88121720D03*
X145653760Y-84052640D03*
X146448780Y-81804740D03*
X148186140Y-80448380D03*
X150147020Y-80031820D03*
X152316180Y-80583000D03*
X153949400Y-82287340D03*
X154668220Y-84446340D03*
X154335480Y-86539300D03*
X152905460Y-88116640D03*
X145872200Y-86287840D03*
D14*
X121613720Y-88677980D03*
X127364280Y-88677980D03*
X124489000Y-89386640D03*
X130633260Y-83943420D03*
X130275120Y-81004640D03*
X128593640Y-78566240D03*
X125969820Y-77189560D03*
X123008180Y-77189560D03*
X120384360Y-78566240D03*
X118702880Y-81004640D03*
X118344740Y-83943420D03*
X119396300Y-86714560D03*
X129581700Y-86714560D03*
D15*
X121613700Y-88678000D02*
X113000000Y-89300000D01*
X119396300Y-86714600D02*
X113000000Y-86760000D01*
X118344700Y-83943400D02*
X113000000Y-84220000D01*
X118702900Y-81004600D02*
X113000000Y-81680000D01*
X120384400Y-78566200D02*
X113000000Y-79140000D01*
X123008200Y-77189600D02*
X113850000Y-77189600D01*
X113850000Y-77189600D02*
X113786500Y-77189600D01*
X113786500Y-77189600D02*
X113000000Y-76600000D01*
X150147000Y-80031800D02*
X148603300Y-79441200D01*
X148603300Y-79441200D02*
X139800000Y-78900000D01*
X148186100Y-80448400D02*
X139800000Y-81440000D01*
X146448800Y-81804700D02*
X139800000Y-83980000D01*
X145653800Y-84052600D02*
X139800000Y-86520000D01*
X145872200Y-86287800D02*
X139800000Y-89060000D01*
X147015200Y-88121700D02*
X140676300Y-90813500D01*
X140676300Y-90813500D02*
X140650000Y-90813500D01*
X140650000Y-90813500D02*
X140586500Y-90813500D01*
X140586500Y-90813500D02*
X139800000Y-91600000D01*
X174942400Y-89022300D02*
X173540900Y-88631100D01*
X173540900Y-88631100D02*
X172859100Y-88631100D01*
X172859100Y-88631100D02*
X172377000Y-89113200D01*
X172377000Y-89113200D02*
X172280600Y-89363200D01*
X172280600Y-89363200D02*
X171798500Y-89845300D01*
X171798500Y-89845300D02*
X164200000Y-92360000D01*
X176926200Y-86152100D02*
X169814700Y-86975100D01*
X169814700Y-86975100D02*
X164200000Y-87280000D01*
X175689200Y-82890800D02*
X171051700Y-83713800D01*
X171051700Y-83713800D02*
X170369900Y-83713800D01*
X170369900Y-83713800D02*
X170030600Y-83546000D01*
X170030600Y-83546000D02*
X169348800Y-83546000D01*
X169348800Y-83546000D02*
X164200000Y-84740000D01*
X174096600Y-82055100D02*
X172644300Y-82878100D01*
X172644300Y-82878100D02*
X171962500Y-82878100D01*
X171962500Y-82878100D02*
X171051700Y-82067800D01*
X171051700Y-82067800D02*
X165050000Y-82067800D01*
X165050000Y-82067800D02*
X164986500Y-82067800D01*
X164986500Y-82067800D02*
X164200000Y-82200000D01*
X125969800Y-77189600D02*
X136100000Y-76360000D01*
X128593600Y-78566200D02*
X136100000Y-78900000D01*
X130275100Y-81004600D02*
X136100000Y-81440000D01*
X130633300Y-83943400D02*
X136100000Y-83980000D01*
X129581700Y-86714600D02*
X136100000Y-86520000D01*
X127364300Y-88678000D02*
X136100000Y-89060000D01*
X124489000Y-89386600D02*
X135223700Y-90813500D01*
X135223700Y-90813500D02*
X135250000Y-90813500D01*
X135250000Y-90813500D02*
X135313500Y-90813500D01*
X135313500Y-90813500D02*
X136100000Y-91600000D01*
X152905500Y-88116600D02*
X160400000Y-89760000D01*
X154335500Y-86539300D02*
X160400000Y-87220000D01*
X154668200Y-84446300D02*
X160400000Y-84680000D01*
X153949400Y-82287300D02*
X160400000Y-82140000D01*
X152316200Y-80583000D02*
X159523700Y-80386500D01*
X159523700Y-80386500D02*
X159550000Y-80386500D01*
X159550000Y-80386500D02*
X159613500Y-80386500D01*
X159613500Y-80386500D02*
X160400000Y-79600000D01*
X172303400Y-82055100D02*
X173755700Y-81232100D01*
X173755700Y-81232100D02*
X182100000Y-79660000D01*
X169473800Y-86152100D02*
X176585300Y-85329100D01*
X176585300Y-85329100D02*
X182100000Y-84740000D01*
X170111400Y-87831100D02*
X175947700Y-87008100D01*
X175947700Y-87008100D02*
X176629500Y-87008100D01*
X176629500Y-87008100D02*
X182100000Y-87280000D01*
X171457600Y-89022300D02*
X172727500Y-88313500D01*
X172727500Y-88313500D02*
X174601500Y-88199300D01*
X174601500Y-88199300D02*
X175283300Y-88199300D01*
X175283300Y-88199300D02*
X175947700Y-88654100D01*
X175947700Y-88654100D02*
X182100000Y-89820000D01*
X173200000Y-89454100D02*
X181223700Y-94113500D01*
X181223700Y-94113500D02*
X181250000Y-94113500D01*
X181250000Y-94113500D02*
X181313500Y-94113500D01*
X181313500Y-94113500D02*
X182100000Y-94900000D01*
M02*
