EESchema Schematic File Version 4
EELAYER 30 0
EELAYER END
$Descr A4 11693 8268
encoding utf-8
Sheet 1 1
Title ""
Date ""
Rev ""
Comp ""
Comment1 ""
Comment2 ""
Comment3 ""
Comment4 ""
$EndDescr
$Comp
L MCU_Microchip_ATmega:ATmega328P-MU U?
U 1 1 5FA010EC
P 4550 3600
F 0 "U?" H 4550 2011 50  0000 C CNN
F 1 "ATmega328P-MU" H 4550 1920 50  0000 C CNN
F 2 "Package_DFN_QFN:QFN-32-1EP_5x5mm_P0.5mm_EP3.1x3.1mm" H 4550 3600 50  0001 C CIN
F 3 "http://ww1.microchip.com/downloads/en/DeviceDoc/ATmega328_P%20AVR%20MCU%20with%20picoPower%20Technology%20Data%20Sheet%2040001984A.pdf" H 4550 3600 50  0001 C CNN
	1    4550 3600
	1    0    0    -1  
$EndComp
Text Label 5150 2600 0    50   ~ 0
D10_SS
Text Label 5150 2700 0    50   ~ 0
D11_MOSI
Text Label 5150 2800 0    50   ~ 0
D12_MISO
Text Label 5150 2900 0    50   ~ 0
D13_SCK
$Comp
L Device:R R?
U 1 1 5FA02B10
P 6800 3000
F 0 "R?" H 6870 3046 50  0000 L CNN
F 1 "1k8" H 6870 2955 50  0000 L CNN
F 2 "" V 6730 3000 50  0001 C CNN
F 3 "~" H 6800 3000 50  0001 C CNN
	1    6800 3000
	1    0    0    -1  
$EndComp
$Comp
L Device:R R?
U 1 1 5FA03011
P 6800 3300
F 0 "R?" H 6870 3346 50  0000 L CNN
F 1 "3k3" H 6870 3255 50  0000 L CNN
F 2 "" V 6730 3300 50  0001 C CNN
F 3 "~" H 6800 3300 50  0001 C CNN
	1    6800 3300
	1    0    0    -1  
$EndComp
Wire Wire Line
	6800 3150 7050 3150
Connection ~ 6800 3150
Text Label 7050 3150 0    50   ~ 0
SS_3V
$Comp
L Device:R R?
U 1 1 5FA03A97
P 7450 3000
F 0 "R?" H 7520 3046 50  0000 L CNN
F 1 "1k8" H 7520 2955 50  0000 L CNN
F 2 "" V 7380 3000 50  0001 C CNN
F 3 "~" H 7450 3000 50  0001 C CNN
	1    7450 3000
	1    0    0    -1  
$EndComp
$Comp
L Device:R R?
U 1 1 5FA03AA1
P 7450 3300
F 0 "R?" H 7520 3346 50  0000 L CNN
F 1 "3k3" H 7520 3255 50  0000 L CNN
F 2 "" V 7380 3300 50  0001 C CNN
F 3 "~" H 7450 3300 50  0001 C CNN
	1    7450 3300
	1    0    0    -1  
$EndComp
Wire Wire Line
	7450 3150 7700 3150
Connection ~ 7450 3150
Text Label 7700 3150 0    50   ~ 0
MOSI_3V
$Comp
L Device:R R?
U 1 1 5FA04AA6
P 8150 3000
F 0 "R?" H 8220 3046 50  0000 L CNN
F 1 "1k8" H 8220 2955 50  0000 L CNN
F 2 "" V 8080 3000 50  0001 C CNN
F 3 "~" H 8150 3000 50  0001 C CNN
	1    8150 3000
	1    0    0    -1  
$EndComp
$Comp
L Device:R R?
U 1 1 5FA04AB0
P 8150 3300
F 0 "R?" H 8220 3346 50  0000 L CNN
F 1 "3k3" H 8220 3255 50  0000 L CNN
F 2 "" V 8080 3300 50  0001 C CNN
F 3 "~" H 8150 3300 50  0001 C CNN
	1    8150 3300
	1    0    0    -1  
$EndComp
Wire Wire Line
	8150 3150 8400 3150
Connection ~ 8150 3150
Text Label 8400 3150 0    50   ~ 0
SCK_3V
$Comp
L Connector:Micro_SD_Card J?
U 1 1 5FA08ED4
P 8950 1750
F 0 "J?" H 8900 2467 50  0000 C CNN
F 1 "Micro_SD_Card" H 8900 2376 50  0000 C CNN
F 2 "" H 10100 2050 50  0001 C CNN
F 3 "http://katalog.we-online.de/em/datasheet/693072010801.pdf" H 8950 1750 50  0001 C CNN
	1    8950 1750
	1    0    0    -1  
$EndComp
$Comp
L Regulator_Linear:AMS1117-3.3 U?
U 1 1 5FA0DD38
P 4550 900
F 0 "U?" H 4550 1142 50  0000 C CNN
F 1 "AMS1117-3.3" H 4550 1051 50  0000 C CNN
F 2 "Package_TO_SOT_SMD:SOT-223-3_TabPin2" H 4550 1100 50  0001 C CNN
F 3 "http://www.advanced-monolithic.com/pdf/ds1117.pdf" H 4650 650 50  0001 C CNN
	1    4550 900 
	1    0    0    -1  
$EndComp
$Comp
L Device:C C?
U 1 1 5FA0E5C2
P 4250 1050
F 0 "C?" H 4050 1100 50  0000 L CNN
F 1 "22uF" H 3950 1000 50  0000 L CNN
F 2 "" H 4288 900 50  0001 C CNN
F 3 "~" H 4250 1050 50  0001 C CNN
	1    4250 1050
	1    0    0    -1  
$EndComp
$Comp
L Device:C C?
U 1 1 5FA0F518
P 4850 1050
F 0 "C?" H 4965 1096 50  0000 L CNN
F 1 "22uF" H 4965 1005 50  0000 L CNN
F 2 "" H 4888 900 50  0001 C CNN
F 3 "~" H 4850 1050 50  0001 C CNN
	1    4850 1050
	1    0    0    -1  
$EndComp
Wire Wire Line
	4250 1200 4550 1200
Wire Wire Line
	4850 1200 4550 1200
Connection ~ 4550 1200
Connection ~ 4250 900 
$Comp
L power:+3V3 #PWR?
U 1 1 5FA125F7
P 4850 900
F 0 "#PWR?" H 4850 750 50  0001 C CNN
F 1 "+3V3" V 4865 1028 50  0000 L CNN
F 2 "" H 4850 900 50  0001 C CNN
F 3 "" H 4850 900 50  0001 C CNN
	1    4850 900 
	0    1    1    0   
$EndComp
Connection ~ 4850 900 
$Comp
L power:+5V #PWR?
U 1 1 5FA13BEB
P 4550 2100
F 0 "#PWR?" H 4550 1950 50  0001 C CNN
F 1 "+5V" H 4565 2273 50  0000 C CNN
F 2 "" H 4550 2100 50  0001 C CNN
F 3 "" H 4550 2100 50  0001 C CNN
	1    4550 2100
	1    0    0    -1  
$EndComp
Wire Wire Line
	4650 2100 4550 2100
Connection ~ 4550 2100
$Comp
L power:+5V #PWR?
U 1 1 5FA112B7
P 4250 900
F 0 "#PWR?" H 4250 750 50  0001 C CNN
F 1 "+5V" V 4265 1028 50  0000 L CNN
F 2 "" H 4250 900 50  0001 C CNN
F 3 "" H 4250 900 50  0001 C CNN
	1    4250 900 
	0    -1   -1   0   
$EndComp
$Comp
L power:+5V #PWR?
U 1 1 5FA14690
P 3950 2400
F 0 "#PWR?" H 3950 2250 50  0001 C CNN
F 1 "+5V" V 3965 2528 50  0000 L CNN
F 2 "" H 3950 2400 50  0001 C CNN
F 3 "" H 3950 2400 50  0001 C CNN
	1    3950 2400
	0    -1   -1   0   
$EndComp
$Comp
L power:GND #PWR?
U 1 1 5FA14DBD
P 4550 1200
F 0 "#PWR?" H 4550 950 50  0001 C CNN
F 1 "GND" H 4555 1027 50  0000 C CNN
F 2 "" H 4550 1200 50  0001 C CNN
F 3 "" H 4550 1200 50  0001 C CNN
	1    4550 1200
	1    0    0    -1  
$EndComp
$Comp
L power:GND #PWR?
U 1 1 5FA1513D
P 4550 5100
F 0 "#PWR?" H 4550 4850 50  0001 C CNN
F 1 "GND" V 4555 4972 50  0000 R CNN
F 2 "" H 4550 5100 50  0001 C CNN
F 3 "" H 4550 5100 50  0001 C CNN
	1    4550 5100
	0    -1   -1   0   
$EndComp
$Comp
L power:GND #PWR?
U 1 1 5FA15573
P 7000 1950
F 0 "#PWR?" H 7000 1700 50  0001 C CNN
F 1 "GND" V 7005 1822 50  0000 R CNN
F 2 "" H 7000 1950 50  0001 C CNN
F 3 "" H 7000 1950 50  0001 C CNN
	1    7000 1950
	0    1    1    0   
$EndComp
$Comp
L power:+5V #PWR?
U 1 1 5FA19B54
P 7000 1650
F 0 "#PWR?" H 7000 1500 50  0001 C CNN
F 1 "+5V" V 7015 1778 50  0000 L CNN
F 2 "" H 7000 1650 50  0001 C CNN
F 3 "" H 7000 1650 50  0001 C CNN
	1    7000 1650
	0    -1   -1   0   
$EndComp
$Comp
L Device:C C?
U 1 1 5FA1A4C2
P 7000 1800
F 0 "C?" H 7115 1846 50  0000 L CNN
F 1 "100nF" H 7115 1755 50  0000 L CNN
F 2 "" H 7038 1650 50  0001 C CNN
F 3 "~" H 7000 1800 50  0001 C CNN
	1    7000 1800
	1    0    0    -1  
$EndComp
$Comp
L Device:C C?
U 1 1 5FA1A8D2
P 7450 1800
F 0 "C?" H 7565 1846 50  0000 L CNN
F 1 "50uF" H 7565 1755 50  0000 L CNN
F 2 "" H 7488 1650 50  0001 C CNN
F 3 "~" H 7450 1800 50  0001 C CNN
	1    7450 1800
	1    0    0    -1  
$EndComp
Wire Wire Line
	7000 1650 7450 1650
Connection ~ 7000 1650
Wire Wire Line
	7000 1950 7450 1950
Connection ~ 7000 1950
Text Label 8050 1850 2    50   ~ 0
SCK_3V
Wire Wire Line
	8050 1750 7800 1750
Wire Wire Line
	8050 1950 7450 1950
Connection ~ 7450 1950
Text Label 8050 2050 2    50   ~ 0
D12_MISO
NoConn ~ 8050 2150
Text Label 8050 1650 2    50   ~ 0
D11_MOSI
Wire Wire Line
	7450 1650 7800 1650
Wire Wire Line
	7800 1650 7800 1750
Connection ~ 7450 1650
Text Label 8050 1550 2    50   ~ 0
D10_SS
NoConn ~ 8050 1450
$Comp
L power:GND #PWR?
U 1 1 5FA2AD94
P 9750 2350
F 0 "#PWR?" H 9750 2100 50  0001 C CNN
F 1 "GND" V 9755 2222 50  0000 R CNN
F 2 "" H 9750 2350 50  0001 C CNN
F 3 "" H 9750 2350 50  0001 C CNN
	1    9750 2350
	0    -1   -1   0   
$EndComp
$Comp
L power:GND #PWR?
U 1 1 5FA2BB30
P 6800 3450
F 0 "#PWR?" H 6800 3200 50  0001 C CNN
F 1 "GND" H 6805 3277 50  0000 C CNN
F 2 "" H 6800 3450 50  0001 C CNN
F 3 "" H 6800 3450 50  0001 C CNN
	1    6800 3450
	1    0    0    -1  
$EndComp
$Comp
L power:GND #PWR?
U 1 1 5FA2BE9D
P 7450 3450
F 0 "#PWR?" H 7450 3200 50  0001 C CNN
F 1 "GND" H 7455 3277 50  0000 C CNN
F 2 "" H 7450 3450 50  0001 C CNN
F 3 "" H 7450 3450 50  0001 C CNN
	1    7450 3450
	1    0    0    -1  
$EndComp
$Comp
L power:GND #PWR?
U 1 1 5FA2C249
P 8150 3450
F 0 "#PWR?" H 8150 3200 50  0001 C CNN
F 1 "GND" H 8155 3277 50  0000 C CNN
F 2 "" H 8150 3450 50  0001 C CNN
F 3 "" H 8150 3450 50  0001 C CNN
	1    8150 3450
	1    0    0    -1  
$EndComp
Text Label 6800 2850 2    50   ~ 0
D10_SS
Text Label 7450 2850 2    50   ~ 0
D11_MOSI
Text Label 8150 2850 2    50   ~ 0
D13_SCK
$EndSCHEMATC
