{
  "head": {
    "docType": "3",
    "editorVersion": "6.4.7",
    "newgId": true,
    "c_para": {},
    "hasIdFlag": true
  },
  "canvas": "CA~1000~1000~#000000~yes~#FFFFFF~10~1000~1000~line~0.5~mil~1~45~~0.5~4000~3000~0~yes",
  "shape": [
    "LIB~4050~3050~package`LED-ARRAY-SMD_4P-L2.80-W2.70-TL`link`https://item.szlcsc.com/391395.html`Contributor`立创EDA官方封装库`3DModel`LED2727-4P_L2.7-W2.7-H2.5-LS2.8`~~~gge7~1~1ab6e9fc4e3543aba846dc2e61f88a38~1589442158~0~#@$TEXT~N~4047.5471~3035.4531~0.6~0~~3~~4.5~LED-ARRAY-SMD_4P-L2.80-W2.70-TL~M 4047.5471 3030.9131 L 4047.5471 3035.2031 M 4047.5471 3035.2031 L 4049.9971 3035.2031 M 4051.3471 3030.9131 L 4051.3471 3035.2031 M 4051.3471 3030.9131 L 4054.0071 3030.9131 M 4051.3471 3032.9531 L 4052.9871 3032.9531 M 4051.3471 3035.2031 L 4054.0071 3035.2031 M 4055.3571 3030.9131 L 4055.3571 3035.2031 M 4055.3571 3030.9131 L 4056.7971 3030.9131 L 4057.4071 3031.1131 L 4057.8171 3031.5231 L 4058.0171 3031.9331 L 4058.2271 3032.5531 L 4058.2271 3033.5731 L 4058.0171 3034.1831 L 4057.8171 3034.5931 L 4057.4071 3035.0031 L 4056.7971 3035.2031 L 4055.3571 3035.2031 M 4059.5771 3033.3631 L 4063.2571 3033.3631 M 4066.2471 3030.9131 L 4064.6071 3035.2031 M 4066.2471 3030.9131 L 4067.8771 3035.2031 M 4065.2171 3033.7731 L 4067.2671 3033.7731 M 4069.2271 3030.9131 L 4069.2271 3035.2031 M 4069.2271 3030.9131 L 4071.0671 3030.9131 L 4071.6871 3031.1131 L 4071.8871 3031.3231 L 4072.0971 3031.7331 L 4072.0971 3032.1431 L 4071.8871 3032.5531 L 4071.6871 3032.7531 L 4071.0671 3032.9531 L 4069.2271 3032.9531 M 4070.6571 3032.9531 L 4072.0971 3035.2031 M 4073.4471 3030.9131 L 4073.4471 3035.2031 M 4073.4471 3030.9131 L 4075.2871 3030.9131 L 4075.8971 3031.1131 L 4076.0971 3031.3231 L 4076.3071 3031.7331 L 4076.3071 3032.1431 L 4076.0971 3032.5531 L 4075.8971 3032.7531 L 4075.2871 3032.9531 L 4073.4471 3032.9531 M 4074.8771 3032.9531 L 4076.3071 3035.2031 M 4079.2971 3030.9131 L 4077.6571 3035.2031 M 4079.2971 3030.9131 L 4080.9271 3035.2031 M 4078.2671 3033.7731 L 4080.3171 3033.7731 M 4082.2771 3030.9131 L 4083.9171 3032.9531 L 4083.9171 3035.2031 M 4085.5471 3030.9131 L 4083.9171 3032.9531 M 4086.8971 3033.3631 L 4090.5871 3033.3631 M 4094.7971 3031.5231 L 4094.3871 3031.1131 L 4093.7771 3030.9131 L 4092.9571 3030.9131 L 4092.3471 3031.1131 L 4091.9371 3031.5231 L 4091.9371 3031.9331 L 4092.1371 3032.3431 L 4092.3471 3032.5531 L 4092.7471 3032.7531 L 4093.9771 3033.1631 L 4094.3871 3033.3631 L 4094.5971 3033.5731 L 4094.7971 3033.9831 L 4094.7971 3034.5931 L 4094.3871 3035.0031 L 4093.7771 3035.2031 L 4092.9571 3035.2031 L 4092.3471 3035.0031 L 4091.9371 3034.5931 M 4096.1471 3030.9131 L 4096.1471 3035.2031 M 4096.1471 3030.9131 L 4097.7871 3035.2031 M 4099.4171 3030.9131 L 4097.7871 3035.2031 M 4099.4171 3030.9131 L 4099.4171 3035.2031 M 4100.7671 3030.9131 L 4100.7671 3035.2031 M 4100.7671 3030.9131 L 4102.1971 3030.9131 L 4102.8171 3031.1131 L 4103.2271 3031.5231 L 4103.4271 3031.9331 L 4103.6371 3032.5531 L 4103.6371 3033.5731 L 4103.4271 3034.1831 L 4103.2271 3034.5931 L 4102.8171 3035.0031 L 4102.1971 3035.2031 L 4100.7671 3035.2031 M 4104.9871 3036.6431 L 4108.6671 3036.6431 M 4112.0571 3030.9131 L 4110.0171 3033.7731 L 4113.0871 3033.7731 M 4112.0571 3030.9131 L 4112.0571 3035.2031 M 4114.4371 3030.9131 L 4114.4371 3035.2031 M 4114.4371 3030.9131 L 4116.2771 3030.9131 L 4116.8871 3031.1131 L 4117.0971 3031.3231 L 4117.2971 3031.7331 L 4117.2971 3032.3431 L 4117.0971 3032.7531 L 4116.8871 3032.9531 L 4116.2771 3033.1631 L 4114.4371 3033.1631 M 4118.6471 3033.3631 L 4122.3271 3033.3631 M 4123.6771 3030.9131 L 4123.6771 3035.2031 M 4123.6771 3035.2031 L 4126.1371 3035.2031 M 4127.6871 3031.9331 L 4127.6871 3031.7331 L 4127.8971 3031.3231 L 4128.0971 3031.1131 L 4128.5071 3030.9131 L 4129.3271 3030.9131 L 4129.7371 3031.1131 L 4129.9371 3031.3231 L 4130.1471 3031.7331 L 4130.1471 3032.1431 L 4129.9371 3032.5531 L 4129.5271 3033.1631 L 4127.4871 3035.2031 L 4130.3471 3035.2031 M 4131.8971 3034.1831 L 4131.6971 3034.3931 L 4131.8971 3034.5931 L 4132.1071 3034.3931 L 4131.8971 3034.1831 M 4134.4771 3030.9131 L 4133.8671 3031.1131 L 4133.6571 3031.5231 L 4133.6571 3031.9331 L 4133.8671 3032.3431 L 4134.2771 3032.5531 L 4135.0971 3032.7531 L 4135.7071 3032.9531 L 4136.1171 3033.3631 L 4136.3171 3033.7731 L 4136.3171 3034.3931 L 4136.1171 3034.8031 L 4135.9071 3035.0031 L 4135.2971 3035.2031 L 4134.4771 3035.2031 L 4133.8671 3035.0031 L 4133.6571 3034.8031 L 4133.4571 3034.3931 L 4133.4571 3033.7731 L 4133.6571 3033.3631 L 4134.0671 3032.9531 L 4134.6871 3032.7531 L 4135.4971 3032.5531 L 4135.9071 3032.3431 L 4136.1171 3031.9331 L 4136.1171 3031.5231 L 4135.9071 3031.1131 L 4135.2971 3030.9131 L 4134.4771 3030.9131 M 4138.8971 3030.9131 L 4138.2871 3031.1131 L 4137.8771 3031.7331 L 4137.6671 3032.7531 L 4137.6671 3033.3631 L 4137.8771 3034.3931 L 4138.2871 3035.0031 L 4138.8971 3035.2031 L 4139.3071 3035.2031 L 4139.9171 3035.0031 L 4140.3271 3034.3931 L 4140.5371 3033.3631 L 4140.5371 3032.7531 L 4140.3271 3031.7331 L 4139.9171 3031.1131 L 4139.3071 3030.9131 L 4138.8971 3030.9131 M 4141.8871 3033.3631 L 4145.5671 3033.3631 M 4146.9171 3030.9131 L 4147.9371 3035.2031 M 4148.9571 3030.9131 L 4147.9371 3035.2031 M 4148.9571 3030.9131 L 4149.9871 3035.2031 M 4151.0071 3030.9131 L 4149.9871 3035.2031 M 4152.5571 3031.9331 L 4152.5571 3031.7331 L 4152.7671 3031.3231 L 4152.9671 3031.1131 L 4153.3771 3030.9131 L 4154.1971 3030.9131 L 4154.6071 3031.1131 L 4154.8071 3031.3231 L 4155.0171 3031.7331 L 4155.0171 3032.1431 L 4154.8071 3032.5531 L 4154.3971 3033.1631 L 4152.3571 3035.2031 L 4155.2171 3035.2031 M 4156.7771 3034.1831 L 4156.5671 3034.3931 L 4156.7771 3034.5931 L 4156.9771 3034.3931 L 4156.7771 3034.1831 M 4161.1971 3030.9131 L 4159.1471 3035.2031 M 4158.3271 3030.9131 L 4161.1971 3030.9131 M 4163.7671 3030.9131 L 4163.1571 3031.1131 L 4162.7471 3031.7331 L 4162.5471 3032.7531 L 4162.5471 3033.3631 L 4162.7471 3034.3931 L 4163.1571 3035.0031 L 4163.7671 3035.2031 L 4164.1771 3035.2031 L 4164.7971 3035.0031 L 4165.1971 3034.3931 L 4165.4071 3033.3631 L 4165.4071 3032.7531 L 4165.1971 3031.7331 L 4164.7971 3031.1131 L 4164.1771 3030.9131 L 4163.7671 3030.9131 M 4166.7571 3033.3631 L 4170.4371 3033.3631 M 4173.2171 3030.9131 L 4173.2171 3035.2031 M 4171.7871 3030.9131 L 4174.6471 3030.9131 M 4175.9971 3030.9131 L 4175.9971 3035.2031 M 4175.9971 3035.2031 L 4178.4571 3035.2031~none~gge8~~0~#@$TEXT~P~4047.5471~3042.4531~0.6~0~~3~~4.5~LED1~M 4047.55 3037.91L4047.55 3042.21 M 4047.55 3042.21L4050 3042.21 M 4051.35 3037.91L4051.35 3042.21 M 4051.35 3037.91L4054.01 3037.91 M 4051.35 3039.96L4052.99 3039.96 M 4051.35 3042.21L4054.01 3042.21 M 4055.36 3037.91L4055.36 3042.21 M 4055.36 3037.91L4056.79 3037.91 L4057.41 3038.12 L4057.82 3038.53 L4058.02 3038.93 L4058.22 3039.55 L4058.22 3040.57 L4058.02 3041.18 L4057.82 3041.59 L4057.41 3042 L4056.79 3042.21 L4055.36 3042.21 M 4059.57 3038.73L4059.98 3038.53 L4060.6 3037.91 L4060.6 3042.21 ~~gge10~~0~#@$TRACK~0.5906~3~~4042.5 3044.5 4042.5 3046~gge13~0#@$TRACK~0.5906~3~~4043.5 3045 4041.5 3045~gge14~0#@$TRACK~0.5906~3~~4042.5 3044.5 4042.5 3044~gge15~0#@$TRACK~0.5906~3~~4054.8393 3055.512 4055.5117 3055.512~gge16~0#@$TRACK~0.5906~3~~4048.9337 3055.512 4051.0665 3055.512~gge18~0#@$TRACK~0.5906~3~~4044.4883 3055.512 4045.1609 3055.512~gge19~0#@$TRACK~0.5906~3~~4054.8393 3055.512 4055.5117 3055.512~gge20~0#@$TRACK~0.5906~3~~4048.9337 3055.512 4051.0665 3055.512~gge21~0#@$TRACK~0.5906~3~~4044.4883 3055.512 4045.1609 3055.512~gge23~0#@$TRACK~0.5906~3~~4054.8393 3044.4885 4055.5117 3044.4885~gge24~0#@$TRACK~0.5906~3~~4048.9337 3044.4885 4051.0665 3044.4885~gge25~0#@$TRACK~0.5906~3~~4044.4883 3044.4885 4045.1609 3044.4885~gge26~0#@$TRACK~0.5906~3~~4054.8393 3044.4885 4055.5117 3044.4885~gge27~0#@$TRACK~0.5906~3~~4048.9337 3044.4885 4051.0665 3044.4885~gge28~0#@$TRACK~0.5906~3~~4044.4883 3044.4885 4045.1609 3044.4885~gge29~0#@$TRACK~0.5906~3~~4047.5 3050.0764 4047.4619 3050.0764 4044.4883 3053.05~gge30~0#@$TRACK~0.5906~3~~4055.5117 3044.4885 4055.5117 3055.512~gge31~0#@$TRACK~0.5906~3~~4044.4883 3044.4885 4044.4883 3055.512~gge32~0#@$TRACK~0.5906~3~~4044.4883 3050.0764 4047.5 3050.0764~gge33~0#@$PAD~RECT~4047.0471~3045.8661~2.3622~3.5433~1~~1~0~4045.8662 3044.0947 4048.2284 3044.0947 4048.2284 3047.6381 4045.8662 3047.6381~0~gge36~0~~Y~0~0~0.4~4047.0473,3045.8664#@$PAD~RECT~4047.0471~3054.1341~2.3622~3.5433~1~~2~0~4045.8662 3052.3625 4048.2284 3052.3625 4048.2284 3055.9059 4045.8662 3055.9059~0~gge41~0~~Y~0~0~0.4~4047.0473,3054.1342#@$PAD~RECT~4052.9531~3054.1341~2.3622~3.5433~1~~3~0~4051.7718 3052.3625 4054.134 3052.3625 4054.134 3055.9059 4051.7718 3055.9059~0~gge46~0~~Y~0~0~0.4~4052.9529,3054.1342#@$PAD~RECT~4052.9531~3045.8661~2.3622~3.5433~1~~4~0~4051.7718 3044.0947 4054.134 3044.0947 4054.134 3047.6381 4051.7718 3047.6381~0~gge51~0~~Y~0~0~0.4~4052.9529,3045.8664#@$SVGNODE~{\"gId\":\"gge7_outline\",\"nodeName\":\"g\",\"nodeType\":1,\"layerid\":\"19\",\"attrs\":{\"c_width\":\"11.0236\",\"c_height\":\"11.0236\",\"c_rotation\":\"0,0,90\",\"z\":\"0\",\"c_origin\":\"4050.35,3049.85\",\"uuid\":\"a28849ae8c5b49a39e93db6c3e71b8d1\",\"c_etype\":\"outline3D\",\"id\":\"gge7_outline\",\"title\":\"LED2727-4P_L2.7-W2.7-H2.5-LS2.8\",\"layerid\":\"19\",\"transform\":\"scale(4.0828) translate(-3058.298, -2302.8504)\"},\"childNodes\":[{\"gId\":\"gge7_outline_line0\",\"nodeName\":\"polyline\",\"nodeType\":1,\"attrs\":{\"fill\":\"none\",\"id\":\"gge7_outline_line0\",\"c_shapetype\":\"line\",\"points\":\"4049.03 3051.2 4049.04 3051.2 4049.05 3051.2 4049.3 3051.2 4049.35 3051.2 4049.6 3051.2 4049.85 3051.2 4049.9 3051.2 4050.8 3051.2 4050.85 3051.2 4051.1 3051.2 4051.35 3051.2 4051.4 3051.2 4051.65 3051.2 4051.66 3051.2 4051.67 3051.2 4051.68 3051.19 4051.69 3051.19 4051.69 3051.18 4051.7 3051.17 4051.7 3051.16 4051.7 3051.15 4051.7 3048.55 4051.7 3048.54 4051.7 3048.53 4051.69 3048.52 4051.69 3048.51 4051.68 3048.51 4051.67 3048.5 4051.66 3048.5 4051.65 3048.5 4051.4 3048.5 4051.35 3048.5 4051.1 3048.5 4050.85 3048.5 4050.8 3048.5 4049.9 3048.5 4049.85 3048.5 4049.6 3048.5 4049.35 3048.5 4049.3 3048.5 4049.05 3048.5 4049.04 3048.5 4049.03 3048.5 4049.02 3048.51 4049.01 3048.51 4049.01 3048.52 4049 3048.53 4049 3048.54 4049 3048.55 4049 3051.15 4049 3051.16 4049 3051.17 4049.01 3051.18 4049.01 3051.19 4049.02 3051.19 4049.03 3051.2 4049.03 3051.2\"}}]}"
  ],
  "layers": [
    "1~TopLayer~#FF0000~true~true~true~",
    "2~BottomLayer~#0000FF~true~false~true~",
    "3~TopSilkLayer~#FFCC00~true~false~true~",
    "4~BottomSilkLayer~#66CC33~true~false~true~",
    "5~TopPasteMaskLayer~#808080~true~false~true~",
    "6~BottomPasteMaskLayer~#800000~true~false~true~",
    "7~TopSolderMaskLayer~#800080~true~false~true~0.3",
    "8~BottomSolderMaskLayer~#AA00FF~true~false~true~0.3",
    "9~Ratlines~#6464FF~false~false~true~",
    "10~BoardOutLine~#FF00FF~true~false~true~",
    "11~Multi-Layer~#C0C0C0~true~false~true~",
    "12~Document~#FFFFFF~true~false~true~",
    "13~TopAssembly~#33CC99~false~false~false~",
    "14~BottomAssembly~#5555FF~false~false~false~",
    "15~Mechanical~#F022F0~false~false~false~",
    "19~3DModel~#66CCFF~false~false~false~",
    "21~Inner1~#999966~false~false~false~~",
    "22~Inner2~#008000~false~false~false~~",
    "23~Inner3~#00FF00~false~false~false~~",
    "24~Inner4~#BC8E00~false~false~false~~",
    "25~Inner5~#70DBFA~false~false~false~~",
    "26~Inner6~#00CC66~false~false~false~~",
    "27~Inner7~#9966FF~false~false~false~~",
    "28~Inner8~#800080~false~false~false~~",
    "29~Inner9~#008080~false~false~false~~",
    "30~Inner10~#15935F~false~false~false~~",
    "31~Inner11~#000080~false~false~false~~",
    "32~Inner12~#00B400~false~false~false~~",
    "33~Inner13~#2E4756~false~false~false~~",
    "34~Inner14~#99842F~false~false~false~~",
    "35~Inner15~#FFFFAA~false~false~false~~",
    "36~Inner16~#99842F~false~false~false~~",
    "37~Inner17~#2E4756~false~false~false~~",
    "38~Inner18~#3535FF~false~false~false~~",
    "39~Inner19~#8000BC~false~false~false~~",
    "40~Inner20~#43AE5F~false~false~false~~",
    "41~Inner21~#C3ECCE~false~false~false~~",
    "42~Inner22~#728978~false~false~false~~",
    "43~Inner23~#39503F~false~false~false~~",
    "44~Inner24~#0C715D~false~false~false~~",
    "45~Inner25~#5A8A80~false~false~false~~",
    "46~Inner26~#2B937E~false~false~false~~",
    "47~Inner27~#23999D~false~false~false~~",
    "48~Inner28~#45B4E3~false~false~false~~",
    "49~Inner29~#215DA1~false~false~false~~",
    "50~Inner30~#4564D7~false~false~false~~",
    "51~Inner31~#6969E9~false~false~false~~",
    "52~Inner32~#9069E9~false~false~false~~",
    "99~ComponentShapeLayer~#00CCCC~false~false~false~",
    "100~LeadShapeLayer~#CC9999~false~false~false~",
    "Hole~Hole~#222222~~false~true~",
    "DRCError~DRCError~#FAD609~~false~true~"
  ],
  "objects": [
    "All~true~false",
    "Component~true~true",
    "Prefix~true~true",
    "Name~true~false",
    "Track~true~true",
    "Pad~true~true",
    "Via~true~true",
    "Hole~true~true",
    "Copper_Area~true~true",
    "Circle~true~true",
    "Arc~true~true",
    "Solid_Region~true~true",
    "Text~true~true",
    "Image~true~true",
    "Rect~true~true",
    "Dimension~true~true",
    "Protractor~true~true"
  ],
  "BBox": {
    "x": 4041.5,
    "y": 3037.9,
    "width": 19.1,
    "height": 18
  },
  "preference": {
    "hideFootprints": "",
    "hideNets": ""
  },
  "DRCRULE": {
    "Default": {
      "trackWidth": 1,
      "clearance": 0.6,
      "viaHoleDiameter": 2.4,
      "viaHoleD": 1.2
    },
    "isRealtime": false,
    "isDrcOnRoutingOrPlaceVia": false,
    "checkObjectToCopperarea": true,
    "showDRCRangeLine": true
  },
  "netColors": {}
}