EESchema Schematic File Version 4
EELAYER 30 0
EELAYER END
$Descr A4 11693 8268
encoding utf-8
Sheet 1 1
Title ""
Date ""
Rev ""
Comp ""
Comment1 ""
Comment2 ""
Comment3 ""
Comment4 ""
$EndDescr
$Comp
L LED:WS2812B D1
U 1 1 5F946274
P 2500 5050
F 0 "D1" H 2844 5096 50  0000 L CNN
F 1 "WS2812B" H 2844 5005 50  0000 L CNN
F 2 "LED_SMD:LED_WS2812B_PLCC4_5.0x5.0mm_P3.2mm" H 2550 4750 50  0001 L TNN
F 3 "https://cdn-shop.adafruit.com/datasheets/WS2812B.pdf" H 2600 4675 50  0001 L TNN
	1    2500 5050
	1    0    0    -1  
$EndComp
$Comp
L nixies-us:IN-14 N1
U 1 1 5F966B60
P 2450 3900
F 0 "N1" H 2500 4645 45  0000 C CNN
F 1 "IN-14" H 2450 3900 45  0001 L BNN
F 2 "nixies-us:nixies-us-IN-14" H 2480 4050 20  0001 C CNN
F 3 "" H 2450 3900 50  0001 C CNN
	1    2450 3900
	1    0    0    -1  
$EndComp
$Comp
L nixies-us:IN-8 N2
U 1 1 5F967018
P 4450 3950
F 0 "N2" H 4400 4795 45  0000 C CNN
F 1 "IN-8" H 4450 3950 45  0001 L BNN
F 2 "nixies-us:nixies-us-IN-8" H 4480 4100 20  0001 C CNN
F 3 "" H 4450 3950 50  0001 C CNN
	1    4450 3950
	1    0    0    -1  
$EndComp
$Comp
L nixies-us:IN-16 N3
U 1 1 5F9675D4
P 6000 3900
F 0 "N3" H 6050 4745 45  0000 C CNN
F 1 "IN-16" H 6000 3900 45  0001 L BNN
F 2 "nixies-us:nixies-us-IN-16" H 6030 4050 20  0001 C CNN
F 3 "" H 6000 3900 50  0001 C CNN
	1    6000 3900
	1    0    0    -1  
$EndComp
$Comp
L Device:LED_ARGB D2
U 1 1 5F96B249
P 4400 5200
F 0 "D2" H 4400 5697 50  0000 C CNN
F 1 "LED_ARGB" H 4400 5606 50  0000 C CNN
F 2 "MHPA2727RGBDT-S:LED-ARRAY-SMD_4P-L2.80-W2.70-TL" H 4400 5150 50  0001 C CNN
F 3 "~" H 4400 5150 50  0001 C CNN
F 4 "C404286" H 4400 5200 50  0001 C CNN "LCSC"
	1    4400 5200
	1    0    0    -1  
$EndComp
$Comp
L Device:LED_ARGB D3
U 1 1 5F967809
P 6050 5150
F 0 "D3" H 6050 5647 50  0000 C CNN
F 1 "LED_ARGB" H 6050 5556 50  0000 C CNN
F 2 "MHPA2727RGBDT-S:LED-ARRAY-SMD_4P-L2.80-W2.70-TL" H 6050 5100 50  0001 C CNN
F 3 "~" H 6050 5100 50  0001 C CNN
F 4 "C404286" H 6050 5150 50  0001 C CNN "LCSC"
	1    6050 5150
	1    0    0    -1  
$EndComp
Wire Wire Line
	6750 3900 6400 3900
Wire Wire Line
	4750 3950 4750 4450
Wire Wire Line
	4750 4450 4050 4450
$Comp
L Connector_Generic:Conn_01x07 J2
U 1 1 5F975521
P 1950 4300
F 0 "J2" H 1868 3775 50  0000 C CNN
F 1 "Conn_01x13" H 1868 3866 50  0000 C CNN
F 2 "Connector_PinHeader_2.54mm:PinHeader_1x07_P2.54mm_Vertical" H 1950 4300 50  0001 C CNN
F 3 "~" H 1950 4300 50  0001 C CNN
	1    1950 4300
	-1   0    0    1   
$EndComp
Wire Wire Line
	3100 4000 2850 4000
Wire Wire Line
	2850 4400 3000 4400
$Comp
L Connector_Generic:Conn_01x04 J6
U 1 1 5F977AC5
P 4400 5900
F 0 "J6" V 4272 6080 50  0000 L CNN
F 1 "Conn_01x04" V 4363 6080 50  0000 L CNN
F 2 "Connector_PinHeader_2.54mm:PinHeader_1x04_P2.54mm_Vertical" H 4400 5900 50  0001 C CNN
F 3 "~" H 4400 5900 50  0001 C CNN
	1    4400 5900
	0    1    1    0   
$EndComp
Wire Wire Line
	4500 5700 4600 5700
Wire Wire Line
	4600 5700 4600 5200
Wire Wire Line
	4150 5200 4200 5200
$Comp
L Connector_Generic:Conn_01x04 J9
U 1 1 5F97A835
P 6100 5900
F 0 "J9" V 5972 6080 50  0000 L CNN
F 1 "Conn_01x04" V 6063 6080 50  0000 L CNN
F 2 "Connector_PinHeader_2.54mm:PinHeader_1x04_P2.54mm_Vertical" H 6100 5900 50  0001 C CNN
F 3 "~" H 6100 5900 50  0001 C CNN
	1    6100 5900
	0    1    1    0   
$EndComp
Wire Wire Line
	6250 5150 6250 5700
Wire Wire Line
	6250 5700 6200 5700
Wire Wire Line
	5850 5500 5850 5350
Wire Wire Line
	6000 5700 6000 5550
Wire Wire Line
	6000 5550 5800 5550
Wire Wire Line
	5800 5550 5800 5150
Wire Wire Line
	5800 5150 5850 5150
$Comp
L Connector_Generic:Conn_01x04 J3
U 1 1 5F97EB18
P 2550 5800
F 0 "J3" V 2422 5980 50  0000 L CNN
F 1 "Conn_01x04" V 2513 5980 50  0000 L CNN
F 2 "Connector_PinHeader_2.54mm:PinHeader_1x04_P2.54mm_Vertical" H 2550 5800 50  0001 C CNN
F 3 "~" H 2550 5800 50  0001 C CNN
	1    2550 5800
	0    1    1    0   
$EndComp
Wire Wire Line
	2500 4750 3350 4750
Wire Wire Line
	3350 4750 3350 5600
Wire Wire Line
	3350 5600 2650 5600
Wire Wire Line
	2200 5050 2200 5400
Wire Wire Line
	2200 5400 2450 5400
Wire Wire Line
	2450 5400 2450 5600
Wire Wire Line
	2800 5050 2800 5550
Wire Wire Line
	3100 4600 2150 4600
Wire Wire Line
	3100 4000 3100 4600
Wire Wire Line
	2850 3500 3250 3500
Wire Wire Line
	3250 3500 3250 4500
Wire Wire Line
	3250 4500 2150 4500
Wire Wire Line
	3000 4400 3000 3400
Wire Wire Line
	3000 3400 2150 3400
Wire Wire Line
	6750 3900 6750 4500
Wire Wire Line
	6750 4500 5700 4500
Wire Wire Line
	6450 3300 5700 3300
$Comp
L Connector_Generic:Conn_01x06 J1
U 1 1 5F99C58E
P 1950 3700
F 0 "J1" H 1868 3175 50  0000 C CNN
F 1 "Conn_01x06" H 1868 3266 50  0000 C CNN
F 2 "Connector_PinHeader_2.54mm:PinHeader_1x06_P2.54mm_Vertical" H 1950 3700 50  0001 C CNN
F 3 "~" H 1950 3700 50  0001 C CNN
	1    1950 3700
	-1   0    0    1   
$EndComp
Wire Wire Line
	2800 5550 2550 5550
Wire Wire Line
	2550 5550 2550 5600
Wire Wire Line
	2500 5350 2350 5350
Wire Wire Line
	2350 5350 2350 5600
$Comp
L Connector_Generic:Conn_01x07 J8
U 1 1 5F9A6885
P 5500 4200
F 0 "J8" H 5418 3675 50  0000 C CNN
F 1 "Conn_01x13" H 5418 3766 50  0000 C CNN
F 2 "Connector_PinHeader_2.54mm:PinHeader_1x07_P2.54mm_Vertical" H 5500 4200 50  0001 C CNN
F 3 "~" H 5500 4200 50  0001 C CNN
	1    5500 4200
	-1   0    0    1   
$EndComp
$Comp
L Connector_Generic:Conn_01x06 J7
U 1 1 5F9A62C2
P 5500 3600
F 0 "J7" H 5418 3075 50  0000 C CNN
F 1 "Conn_01x06" H 5418 3166 50  0000 C CNN
F 2 "Connector_PinHeader_2.54mm:PinHeader_1x06_P2.54mm_Vertical" H 5500 3600 50  0001 C CNN
F 3 "~" H 5500 3600 50  0001 C CNN
	1    5500 3600
	-1   0    0    1   
$EndComp
$Comp
L Connector_Generic:Conn_01x06 J5
U 1 1 5F9A86E7
P 3850 4250
F 0 "J5" H 3768 3725 50  0000 C CNN
F 1 "Conn_01x06" H 3768 3816 50  0000 C CNN
F 2 "Connector_PinHeader_2.54mm:PinHeader_1x06_P2.54mm_Vertical" H 3850 4250 50  0001 C CNN
F 3 "~" H 3850 4250 50  0001 C CNN
	1    3850 4250
	-1   0    0    1   
$EndComp
$Comp
L Connector_Generic:Conn_01x05 J4
U 1 1 5F9A8D59
P 3850 3650
F 0 "J4" H 3768 3225 50  0000 C CNN
F 1 "Conn_01x06" H 3768 3316 50  0000 C CNN
F 2 "Connector_PinHeader_2.54mm:PinHeader_1x05_P2.54mm_Vertical" H 3850 3650 50  0001 C CNN
F 3 "~" H 3850 3650 50  0001 C CNN
	1    3850 3650
	-1   0    0    1   
$EndComp
Wire Wire Line
	4400 5700 4400 5550
Wire Wire Line
	4400 5550 4050 5550
Wire Wire Line
	4050 5550 4050 5000
Wire Wire Line
	4050 5000 4200 5000
Wire Wire Line
	4150 5600 4150 5200
Wire Wire Line
	4300 5600 4150 5600
Wire Wire Line
	4300 5700 4300 5600
Wire Wire Line
	4200 5400 4200 5700
Wire Wire Line
	5850 4950 5750 4950
Wire Wire Line
	5750 4950 5750 5600
Wire Wire Line
	5750 5600 6100 5600
Wire Wire Line
	6100 5600 6100 5700
Wire Wire Line
	5850 5500 5900 5500
Wire Wire Line
	5900 5500 5900 5700
Wire Wire Line
	6400 4300 6400 4400
Wire Wire Line
	6400 4400 5700 4400
Wire Wire Line
	6400 3400 6450 3400
Wire Wire Line
	6450 3400 6450 3300
$EndSCHEMATC
